Many files – Coding at the Tandy Center for Ocean Forecasting
…
We can also read the same data in, but this time request a spatial sf objects, where each row’s x and y coordinates are transformed into spatial POINT.

x = read_guppy(gup_files, form = "sf") |>
  print()

Simple feature collection with 105 features and 9 fields
Geometry type: POINT
Dimension:     XY
Bounding box:  xmin: 452032.1 ymin: 4857756 xmax: 452066.9 ymax: 4857774
Projected CRS: NAD83 / UTM zone 19N
# A tibble: 105 × 10
   site_id time                researcher shade gps_codes    id treatment count
 * <chr>   <dttm>              <chr>      <dbl> <chr>     <dbl> <chr>     <dbl>
 1 site_01 2020-05-16 07:26:25 JPO           30 c-q-q         1 C            32
 2 site_01 2020-05-16 07:26:25 JPO           30 c-q-q         2 B            71
 3 site_01 2020-05-16 07:26:25 JPO           30 c-q-q         3 D            54
 4 site_01 2020-05-16 07:26:25 JPO           30 c-q-q         4 C            57
 5 site_01 2020-05-16 07:26:25 JPO           30 c-q-q         5 C            32
 6 site_01 2020-05-16 07:26:25 JPO           30 c-q-q         6 A            55
 7 site_01 2020-05-16 07:26:25 JPO           30 c-q-q         7 B            66
 8 site_01 2020-05-16 07:26:25 JPO           30 c-q-q         8 B            61
 9 site_01 2020-05-16 07:26:25 JPO           30 c-q-q         9 A            60
10 site_01 2020-05-16 07:26:25 JPO           30 c-q-q        10 B            33
# ℹ 95 more rows
# ℹ 2 more variables: dose <dbl>, geometry <POINT [m]>
…
