Coding at the Tandy Center for Ocean Forecasting - Iterations
…
It is very common to have a flat table (data.frame) where rows are grouped, not in contiguous rows perhaps, but by a common value in a particular column. In fact, you may have the need to have multiple groupings - nested groups, where we first group by “this” and then within each of those groups we group by “that”. There’s no limited on how many nested groups you might envision in a table. The dplyr package and friends provide easy utilities for iterating over these groups. In this case, the process is loosely described as mapping a portion of a table (a group) to a function. There are a number of these utilities, but we’ll focus on group_map().

An example table

We have created a function that produces a table in the E pluribus unum tutorial. The table is synthetic data about a study on fictitious guppies.

source("setup.R")

here() starts at /Users/jevanilla/Documents/Bigelow/CODE/TCOF-R

x = read_guppy() |>
  print()

# A tibble: 105 × 11
   site_id       x        y time                researcher shade gps_codes    id
   <chr>     <dbl>    <dbl> <dttm>              <chr>      <dbl> <chr>     <dbl>
 1 site_01 452032. 4857765. 2020-05-16 07:26:25 JPO           30 c-q-q         1
 2 site_01 452032. 4857765. 2020-05-16 07:26:25 JPO           30 c-q-q         2
 3 site_01 452032. 4857765. 2020-05-16 07:26:25 JPO           30 c-q-q         3
 4 site_01 452032. 4857765. 2020-05-16 07:26:25 JPO           30 c-q-q         4
 5 site_01 452032. 4857765. 2020-05-16 07:26:25 JPO           30 c-q-q         5
 6 site_01 452032. 4857765. 2020-05-16 07:26:25 JPO           30 c-q-q         6
 7 site_01 452032. 4857765. 2020-05-16 07:26:25 JPO           30 c-q-q         7
 8 site_01 452032. 4857765. 2020-05-16 07:26:25 JPO           30 c-q-q         8
 9 site_01 452032. 4857765. 2020-05-16 07:26:25 JPO           30 c-q-q         9
10 site_01 452032. 4857765. 2020-05-16 07:26:25 JPO           30 c-q-q        10
# ℹ 95 more rows
# ℹ 3 more variables: treatment <chr>, count <dbl>, dose <dbl>
…
OK, there are 19 treatment-shade groups so we should expect our summary table to have 19 rows (one for each treatment-shade group.) This is good info to have to help check our work.

Next we assign to the table the identity of the grouping variable - that is, which column contains the treatment-shade identifiers

x = dplyr::group_by(x, treatment, shade) |>
  print()

# A tibble: 105 × 11
# Groups:   treatment, shade [19]
   site_id       x        y time                researcher shade gps_codes    id
   <chr>     <dbl>    <dbl> <dttm>              <chr>      <dbl> <chr>     <dbl>
 1 site_01 452032. 4857765. 2020-05-16 07:26:25 JPO           30 c-q-q         1
 2 site_01 452032. 4857765. 2020-05-16 07:26:25 JPO           30 c-q-q         2
 3 site_01 452032. 4857765. 2020-05-16 07:26:25 JPO           30 c-q-q         3
 4 site_01 452032. 4857765. 2020-05-16 07:26:25 JPO           30 c-q-q         4
 5 site_01 452032. 4857765. 2020-05-16 07:26:25 JPO           30 c-q-q         5
 6 site_01 452032. 4857765. 2020-05-16 07:26:25 JPO           30 c-q-q         6
 7 site_01 452032. 4857765. 2020-05-16 07:26:25 JPO           30 c-q-q         7
 8 site_01 452032. 4857765. 2020-05-16 07:26:25 JPO           30 c-q-q         8
 9 site_01 452032. 4857765. 2020-05-16 07:26:25 JPO           30 c-q-q         9
10 site_01 452032. 4857765. 2020-05-16 07:26:25 JPO           30 c-q-q        10
# ℹ 95 more rows
# ℹ 3 more variables: treatment <chr>, count <dbl>, dose <dbl>
…
